{
    "CMCU_Settings":{
        "baud_rate_bps":250000,
        "bus_id":0,
        "node_id":1,
        "batt_number":4,
        "FWV":"2_11_9",
        "dbc_version":21,
        "IF_board":"CMCU_IF_CN4",
        "batt_type":"OKAI",
        "charger_type":"RELAY",
        "Serialnumber":"01001119010001",
        "IF_Serialnumber":"03020121010003",
        "Charger_Serialnumber":"None"
    },
    "Test_Parameters":{
        "cmcu_heartbeat_hz":1,
        "max_testing_time_s": 20,
        "catch_error_time_window_s": 5,
        "recv_timeout_s": 2,
        "ts_average_amount":5,
        "test_slots":[0]
    }
}
